%YAML 1.1
%TAG !u! tag:unity3d.com,2011:
--- !u!114 &11400000
MonoBehaviour:
  m_ObjectHideFlags: 0
  m_CorrespondingSourceObject: {fileID: 0}
  m_PrefabInstance: {fileID: 0}
  m_PrefabAsset: {fileID: 0}
  m_GameObject: {fileID: 0}
  m_Enabled: 1
  m_EditorHideFlags: 0
  m_Script: {fileID: 11500000, guid: 0da8385c1169b004b9797b761680d769, type: 3}
  m_Name: Backpack
  m_EditorClassIdentifier: 
  PreviewMesh: {fileID: 4300000, guid: 7a2567ee379543a42b2e932cc0408819, type: 3}
  Settings:
    Identifier:
      Guid: 9e2272b2-aaca-4396-b914-d8f0928aa1b0
    PrefabName: Campfire/Backpack
    PhysicsMaterial:
      Guid: 
    Shape: 2
    Extents:
      X:
        RawValue: 26214
      Y:
        RawValue: 32768
      Z:
        RawValue: 39321
    ScaleFactor:
      RawValue: 65536
    Mass:
      RawValue: 65536
    BrushData:
      Guid: 
    SnapToHand: 0
