%YAML 1.1
%TAG !u! tag:unity3d.com,2011:
--- !u!114 &11400000
MonoBehaviour:
  m_ObjectHideFlags: 0
  m_CorrespondingSourceObject: {fileID: 0}
  m_PrefabInstance: {fileID: 0}
  m_PrefabAsset: {fileID: 0}
  m_GameObject: {fileID: 0}
  m_Enabled: 1
  m_EditorHideFlags: 0
  m_Script: {fileID: 11500000, guid: 0da8385c1169b004b9797b761680d769, type: 3}
  m_Name: Ball
  m_EditorClassIdentifier: 
  PreviewMesh: {fileID: 4300000, guid: fb8d7a254633bfd4aa7da153e222a1e9, type: 3}
  Settings:
    Identifier:
      Guid: 776983a7-7608-4b86-948a-204cae037c8a
    PrefabName: Campfire/Ball
    PhysicsMaterial:
      Guid: 3329156f-8784-46c7-99c8-d5a5d3e1b957
    Shape: 1
    Extents:
      X:
        RawValue: 13107
      Y:
        RawValue: 0
      Z:
        RawValue: 0
    ScaleFactor:
      RawValue: 65536
    Mass:
      RawValue: 65536
    BrushData:
      Guid: 
    SnapToHand: 0
