%YAML 1.1
%TAG !u! tag:unity3d.com,2011:
--- !u!114 &11400000
MonoBehaviour:
  m_ObjectHideFlags: 0
  m_CorrespondingSourceObject: {fileID: 0}
  m_PrefabInstance: {fileID: 0}
  m_PrefabAsset: {fileID: 0}
  m_GameObject: {fileID: 0}
  m_Enabled: 1
  m_EditorHideFlags: 0
  m_Script: {fileID: 11500000, guid: 0da8385c1169b004b9797b761680d769, type: 3}
  m_Name: BedRoll_Open
  m_EditorClassIdentifier: 
  PreviewMesh: {fileID: 4300000, guid: 7ae75e1a7883a254baac8073d7edb4a3, type: 3}
  Settings:
    Identifier:
      Guid: c5279142-8a23-44da-99d1-5cbb964c03b4
    PrefabName: Campfire/BedRoll_Open
    PhysicsMaterial:
      Guid: 
    Shape: 2
    Extents:
      X:
        RawValue: 65536
      Y:
        RawValue: 16384
      Z:
        RawValue: 131072
    ScaleFactor:
      RawValue: 65536
    Mass:
      RawValue: 65536
    BrushData:
      Guid: 
    SnapToHand: 0
