%YAML 1.1
%TAG !u! tag:unity3d.com,2011:
--- !u!114 &11400000
MonoBehaviour:
  m_ObjectHideFlags: 0
  m_CorrespondingSourceObject: {fileID: 0}
  m_PrefabInstance: {fileID: 0}
  m_PrefabAsset: {fileID: 0}
  m_GameObject: {fileID: 0}
  m_Enabled: 1
  m_EditorHideFlags: 0
  m_Script: {fileID: 11500000, guid: 0da8385c1169b004b9797b761680d769, type: 3}
  m_Name: Marshmallow
  m_EditorClassIdentifier: 
  PreviewMesh: {fileID: 4300000, guid: cb32012305e76b244892f98e86cc971d, type: 3}
  Settings:
    Identifier:
      Guid: bedd805a-8a8c-4fc0-912b-3e4ddb5f2c26
    PrefabName: Campfire/Marshmallow
    PhysicsMaterial:
      Guid: 
    Shape: 2
    Extents:
      X:
        RawValue: 13107
      Y:
        RawValue: 22937
      Z:
        RawValue: 9830
    ScaleFactor:
      RawValue: 65536
    Mass:
      RawValue: 65536
    BrushData:
      Guid: 
    SnapToHand: 1
