%YAML 1.1
%TAG !u! tag:unity3d.com,2011:
--- !u!114 &11400000
MonoBehaviour:
  m_ObjectHideFlags: 0
  m_CorrespondingSourceObject: {fileID: 0}
  m_PrefabInstance: {fileID: 0}
  m_PrefabAsset: {fileID: 0}
  m_GameObject: {fileID: 0}
  m_Enabled: 1
  m_EditorHideFlags: 0
  m_Script: {fileID: 11500000, guid: 0da8385c1169b004b9797b761680d769, type: 3}
  m_Name: Pan
  m_EditorClassIdentifier: 
  PreviewMesh: {fileID: 4300000, guid: ce20ae0cdd244c74d8851fee0014e9d3, type: 3}
  Settings:
    Identifier:
      Guid: 5f280942-5689-43d2-8108-a4e0f0881381
    PrefabName: Campfire/Pan
    PhysicsMaterial:
      Guid: 
    Shape: 2
    Extents:
      X:
        RawValue: 22937
      Y:
        RawValue: 65536
      Z:
        RawValue: 16384
    ScaleFactor:
      RawValue: 65536
    Mass:
      RawValue: 65536
    BrushData:
      Guid: 
    SnapToHand: 1
