%YAML 1.1
%TAG !u! tag:unity3d.com,2011:
--- !u!114 &11400000
MonoBehaviour:
  m_ObjectHideFlags: 0
  m_CorrespondingSourceObject: {fileID: 0}
  m_PrefabInstance: {fileID: 0}
  m_PrefabAsset: {fileID: 0}
  m_GameObject: {fileID: 0}
  m_Enabled: 1
  m_EditorHideFlags: 0
  m_Script: {fileID: 11500000, guid: 0da8385c1169b004b9797b761680d769, type: 3}
  m_Name: Pillow_02
  m_EditorClassIdentifier: 
  PreviewMesh: {fileID: 4300000, guid: 1a2619c307bbc7f42880e7151d3b890c, type: 3}
  Settings:
    Identifier:
      Guid: c40ff9db-e86a-423e-8359-96a6d97f57fb
    PrefabName: Campfire/Pillow_02
    PhysicsMaterial:
      Guid: 
    Shape: 2
    Extents:
      X:
        RawValue: 45875
      Y:
        RawValue: 21297
      Z:
        RawValue: 26214
    ScaleFactor:
      RawValue: 65536
    Mass:
      RawValue: 65536
    BrushData:
      Guid: 
    SnapToHand: 0
