%YAML 1.1
%TAG !u! tag:unity3d.com,2011:
--- !u!114 &11400000
MonoBehaviour:
  m_ObjectHideFlags: 0
  m_CorrespondingSourceObject: {fileID: 0}
  m_PrefabInstance: {fileID: 0}
  m_PrefabAsset: {fileID: 0}
  m_GameObject: {fileID: 0}
  m_Enabled: 1
  m_EditorHideFlags: 0
  m_Script: {fileID: 11500000, guid: 0da8385c1169b004b9797b761680d769, type: 3}
  m_Name: Pillow_01
  m_EditorClassIdentifier: 
  PreviewMesh: {fileID: 4300000, guid: f7f28dac35e1e7446bc466fbbd27590e, type: 3}
  Settings:
    Identifier:
      Guid: 0a67507e-e815-4fe7-a67a-46f38fb733a8
    PrefabName: Campfire/Pillow_01
    PhysicsMaterial:
      Guid: 
    Shape: 2
    Extents:
      X:
        RawValue: 45875
      Y:
        RawValue: 21298
      Z:
        RawValue: 26214
    ScaleFactor:
      RawValue: 65536
    Mass:
      RawValue: 65536
    BrushData:
      Guid: 
    SnapToHand: 0
