%YAML 1.1
%TAG !u! tag:unity3d.com,2011:
--- !u!319 &31900000
AvatarMask:
  m_ObjectHideFlags: 0
  m_CorrespondingSourceObject: {fileID: 0}
  m_PrefabInstance: {fileID: 0}
  m_PrefabAsset: {fileID: 0}
  m_Name: 5_Poses
  m_Mask: 01000000010000000100000001000000010000000100000001000000010000000100000001000000010000000100000001000000
  m_Elements:
  - m_Path: 
    m_Weight: 1
  - m_Path: Root
    m_Weight: 1
  - m_Path: Root/finger_index_r_aux
    m_Weight: 0
  - m_Path: Root/finger_middle_r_aux
    m_Weight: 0
  - m_Path: Root/finger_pinky_r_aux
    m_Weight: 0
  - m_Path: Root/finger_ring_r_aux
    m_Weight: 0
  - m_Path: Root/finger_thumb_r_aux
    m_Weight: 0
  - m_Path: Root/wrist_r
    m_Weight: 0
  - m_Path: Root/wrist_r/finger_index_meta_r
    m_Weight: 1
  - m_Path: Root/wrist_r/finger_index_meta_r/finger_index_0_r
    m_Weight: 1
  - m_Path: Root/wrist_r/finger_index_meta_r/finger_index_0_r/finger_index_1_r
    m_Weight: 1
  - m_Path: Root/wrist_r/finger_index_meta_r/finger_index_0_r/finger_index_1_r/finger_index_2_r
    m_Weight: 1
  - m_Path: Root/wrist_r/finger_index_meta_r/finger_index_0_r/finger_index_1_r/finger_index_2_r/finger_index_r_end
    m_Weight: 1
  - m_Path: Root/wrist_r/finger_middle_meta_r
    m_Weight: 1
  - m_Path: Root/wrist_r/finger_middle_meta_r/finger_middle_0_r
    m_Weight: 1
  - m_Path: Root/wrist_r/finger_middle_meta_r/finger_middle_0_r/finger_middle_1_r
    m_Weight: 1
  - m_Path: Root/wrist_r/finger_middle_meta_r/finger_middle_0_r/finger_middle_1_r/finger_middle_2_r
    m_Weight: 1
  - m_Path: Root/wrist_r/finger_middle_meta_r/finger_middle_0_r/finger_middle_1_r/finger_middle_2_r/finger_middle_r_end
    m_Weight: 1
  - m_Path: Root/wrist_r/finger_pinky_meta_r
    m_Weight: 1
  - m_Path: Root/wrist_r/finger_pinky_meta_r/finger_pinky_0_r
    m_Weight: 1
  - m_Path: Root/wrist_r/finger_pinky_meta_r/finger_pinky_0_r/finger_pinky_1_r
    m_Weight: 1
  - m_Path: Root/wrist_r/finger_pinky_meta_r/finger_pinky_0_r/finger_pinky_1_r/finger_pinky_2_r
    m_Weight: 1
  - m_Path: Root/wrist_r/finger_pinky_meta_r/finger_pinky_0_r/finger_pinky_1_r/finger_pinky_2_r/finger_pinky_r_end
    m_Weight: 1
  - m_Path: Root/wrist_r/finger_ring_meta_r
    m_Weight: 1
  - m_Path: Root/wrist_r/finger_ring_meta_r/finger_ring_0_r
    m_Weight: 1
  - m_Path: Root/wrist_r/finger_ring_meta_r/finger_ring_0_r/finger_ring_1_r
    m_Weight: 1
  - m_Path: Root/wrist_r/finger_ring_meta_r/finger_ring_0_r/finger_ring_1_r/finger_ring_2_r
    m_Weight: 1
  - m_Path: Root/wrist_r/finger_ring_meta_r/finger_ring_0_r/finger_ring_1_r/finger_ring_2_r/finger_ring_r_end
    m_Weight: 1
  - m_Path: Root/wrist_r/finger_thumb_0_r
    m_Weight: 1
  - m_Path: Root/wrist_r/finger_thumb_0_r/finger_thumb_1_r
    m_Weight: 1
  - m_Path: Root/wrist_r/finger_thumb_0_r/finger_thumb_1_r/finger_thumb_2_r
    m_Weight: 1
  - m_Path: Root/wrist_r/finger_thumb_0_r/finger_thumb_1_r/finger_thumb_2_r/finger_thumb_r_end
    m_Weight: 1
  - m_Path: VR_Hand_Model
    m_Weight: 0
