%YAML 1.1
%TAG !u! tag:unity3d.com,2011:
--- !u!114 &11400000
MonoBehaviour:
  m_ObjectHideFlags: 0
  m_CorrespondingSourceObject: {fileID: 0}
  m_PrefabInstance: {fileID: 0}
  m_PrefabAsset: {fileID: 0}
  m_GameObject: {fileID: 0}
  m_Enabled: 1
  m_EditorHideFlags: 0
  m_Script: {fileID: 11500000, guid: 0da8385c1169b004b9797b761680d769, type: 3}
  m_Name: speakerSign
  m_EditorClassIdentifier: 
  PreviewMesh: {fileID: 0}
  Settings:
    Identifier:
      Guid: re_07
    PrefabName: RE/speakerSign
    PhysicsMaterial:
      Guid: 
    Shape: 2
    Extents:
      X:
        RawValue: 7864
      Y:
        RawValue: 10485
      Z:
        RawValue: 93716
    ScaleFactor:
      RawValue: 65536
    Mass:
      RawValue: 65536
    BrushData:
      Guid: 
    SnapToHand: 0
