%YAML 1.1
%TAG !u! tag:unity3d.com,2011:
--- !u!114 &11400000
MonoBehaviour:
  m_ObjectHideFlags: 0
  m_CorrespondingSourceObject: {fileID: 0}
  m_PrefabInstance: {fileID: 0}
  m_PrefabAsset: {fileID: 0}
  m_GameObject: {fileID: 0}
  m_Enabled: 1
  m_EditorHideFlags: 0
  m_Script: {fileID: 11500000, guid: 3877f5b7ce4fe5844a189b1f3f256c8c, type: 3}
  m_Name: FloorMaterial
  m_EditorClassIdentifier: 
  Settings:
    Identifier:
      Guid: 3be2a2ce-fe4e-4fa1-9687-eb07ce31cb5e
    Drag:
      RawValue: 65536
    DragAngular:
      RawValue: 65536
    Restitution:
      RawValue: 65536
    RestitutionCombineFunction: 0
    FrictionStatic:
      RawValue: 65536
    FrictionDynamic:
      RawValue: 65536
    FrictionCombineFunction: 0
    RotationFreeze: 1
    AllowSleeping: 1
