%YAML 1.1
%TAG !u! tag:unity3d.com,2011:
--- !u!114 &11400000
MonoBehaviour:
  m_ObjectHideFlags: 0
  m_CorrespondingSourceObject: {fileID: 0}
  m_PrefabInstance: {fileID: 0}
  m_PrefabAsset: {fileID: 0}
  m_GameObject: {fileID: 0}
  m_Enabled: 1
  m_EditorHideFlags: 0
  m_Script: {fileID: 11500000, guid: c46010c9276706446af5f3ff37b0efa7, type: 3}
  m_Name: LeftHandBrush
  m_EditorClassIdentifier: 
  BrushColor: {r: 1, g: 0.52006507, b: 0, a: 1}
  Settings:
    Identifier:
      Guid: LeftHandBrushData
    Radius:
      RawValue: 655
    MaxPressureDistance:
      RawValue: 3276
    Offset:
      X:
        RawValue: 0
      Y:
        RawValue: 0
      Z:
        RawValue: 6540
    Direction:
      X:
        RawValue: 0
      Y:
        RawValue: 0
      Z:
        RawValue: 65536
    RaycastMaxDistance:
      RawValue: 6553
    Layer: 0
