%YAML 1.1
%TAG !u! tag:unity3d.com,2011:
--- !u!114 &11400000
MonoBehaviour:
  m_ObjectHideFlags: 0
  m_CorrespondingSourceObject: {fileID: 0}
  m_PrefabInstance: {fileID: 0}
  m_PrefabAsset: {fileID: 0}
  m_GameObject: {fileID: 0}
  m_Enabled: 1
  m_EditorHideFlags: 0
  m_Script: {fileID: 11500000, guid: 0da8385c1169b004b9797b761680d769, type: 3}
  m_Name: MagicCube
  m_EditorClassIdentifier: 
  PreviewMesh: {fileID: 4300000, guid: 6f3e18b8bcd4ec349a216579f86cbe46, type: 3}
  Settings:
    Identifier:
      Guid: 7e81faf1-65bd-4907-90aa-731357ec7ba8
    PrefabName: MagicCube
    PhysicsMaterial:
      Guid: $DEFAULT_PHYSICS_MATERIAL
    Shape: 2
    Extents:
      X:
        RawValue: 18350
      Y:
        RawValue: 18350
      Z:
        RawValue: 18350
    ScaleFactor:
      RawValue: 65536
    Mass:
      RawValue: 16384
    BrushData:
      Guid: 
    SnapToHand: 0
