%YAML 1.1
%TAG !u! tag:unity3d.com,2011:
--- !u!114 &11400000
MonoBehaviour:
  m_ObjectHideFlags: 0
  m_CorrespondingSourceObject: {fileID: 0}
  m_PrefabInstance: {fileID: 0}
  m_PrefabAsset: {fileID: 0}
  m_GameObject: {fileID: 0}
  m_Enabled: 1
  m_EditorHideFlags: 0
  m_Script: {fileID: 11500000, guid: 0da8385c1169b004b9797b761680d769, type: 3}
  m_Name: Pencil_02
  m_EditorClassIdentifier: 
  PreviewMesh: {fileID: 4300000, guid: b38887e2ff33e0545a92142351f2b83c, type: 3}
  Settings:
    Identifier:
      Guid: 0aecce28-ae0d-4734-95cc-f16fbda3790e
    PrefabName: Pencil_02
    PhysicsMaterial:
      Guid: $DEFAULT_PHYSICS_MATERIAL
    Shape: 2
    Extents:
      X:
        RawValue: 9830
      Y:
        RawValue: 9830
      Z:
        RawValue: 39321
    ScaleFactor:
      RawValue: 65536
    Mass:
      RawValue: 65536
    BrushData:
      Guid: b5757515-9ed9-4360-9cb7-0766eb3f85be
    SnapToHand: 1
