%YAML 1.1
%TAG !u! tag:unity3d.com,2011:
--- !u!114 &11400000
MonoBehaviour:
  m_ObjectHideFlags: 0
  m_CorrespondingSourceObject: {fileID: 0}
  m_PrefabInstance: {fileID: 0}
  m_PrefabAsset: {fileID: 0}
  m_GameObject: {fileID: 0}
  m_Enabled: 1
  m_EditorHideFlags: 0
  m_Script: {fileID: 11500000, guid: c46010c9276706446af5f3ff37b0efa7, type: 3}
  m_Name: PencilBrush_Green
  m_EditorClassIdentifier: 
  BrushColor: {r: 0, g: 1, b: 0, a: 1}
  Settings:
    Identifier:
      Guid: b5757515-9ed9-4360-9cb7-0766eb3f85be
    Radius:
      RawValue: 655
    MaxPressureDistance:
      RawValue: 6553
    Offset:
      X:
        RawValue: 0
      Y:
        RawValue: 0
      Z:
        RawValue: 0
    Direction:
      X:
        RawValue: 0
      Y:
        RawValue: 0
      Z:
        RawValue: 65536
    RaycastMaxDistance:
      RawValue: 22937
    Layer: 0
