%YAML 1.1
%TAG !u! tag:unity3d.com,2011:
--- !u!114 &11400000
MonoBehaviour:
  m_ObjectHideFlags: 0
  m_CorrespondingSourceObject: {fileID: 0}
  m_PrefabInstance: {fileID: 0}
  m_PrefabAsset: {fileID: 0}
  m_GameObject: {fileID: 0}
  m_Enabled: 1
  m_EditorHideFlags: 0
  m_Script: {fileID: 11500000, guid: 727ee7e1dccf3234092c47027ac73ae3, type: 3}
  m_Name: CompanionStateMachineBlackboard
  m_EditorClassIdentifier: 
  Settings:
    Identifier:
      Guid: CompanionStateMachineBlackboard
    Entries:
    - Type: 3
      Key:
        Key: NewBlackboard Variable
