%YAML 1.1
%TAG !u! tag:unity3d.com,2011:
--- !u!114 &11400000
MonoBehaviour:
  m_ObjectHideFlags: 0
  m_CorrespondingSourceObject: {fileID: 0}
  m_PrefabInstance: {fileID: 0}
  m_PrefabAsset: {fileID: 0}
  m_GameObject: {fileID: 0}
  m_Enabled: 1
  m_EditorHideFlags: 0
  m_Script: {fileID: 11500000, guid: dfbf81c5bd657f644bd51b6a4eb56f64, type: 3}
  m_Name: CompanionStateMachineBlackboardInitializer
  m_EditorClassIdentifier: 
  Settings:
    Identifier:
      Guid: CompanionStateMachineBlackboardInitializer
    ReportMissingEntries: 1
    AIBlackboard:
      Guid: CompanionStateMachineBlackboard
    InitialValues: []
