%YAML 1.1
%TAG !u! tag:unity3d.com,2011:
--- !u!1 &1351470433941039145
GameObject:
  m_ObjectHideFlags: 0
  m_CorrespondingSourceObject: {fileID: 0}
  m_PrefabInstance: {fileID: 0}
  m_PrefabAsset: {fileID: 0}
  serializedVersion: 6
  m_Component:
  - component: {fileID: 6355250105585547351}
  - component: {fileID: 5447670169249716760}
  m_Layer: 0
  m_Name: SteamVrGlove_Left
  m_TagString: Untagged
  m_Icon: {fileID: 0}
  m_NavMeshLayer: 0
  m_StaticEditorFlags: 0
  m_IsActive: 1
--- !u!4 &6355250105585547351
Transform:
  m_ObjectHideFlags: 0
  m_CorrespondingSourceObject: {fileID: 0}
  m_PrefabInstance: {fileID: 0}
  m_PrefabAsset: {fileID: 0}
  m_GameObject: {fileID: 1351470433941039145}
  m_LocalRotation: {x: 0, y: 0, z: 0, w: 1}
  m_LocalPosition: {x: 0, y: 0, z: 0}
  m_LocalScale: {x: 1, y: 1, z: 1}
  m_Children: []
  m_Father: {fileID: 0}
  m_RootOrder: 0
  m_LocalEulerAnglesHint: {x: 0, y: 0, z: 0}
--- !u!114 &5447670169249716760
MonoBehaviour:
  m_ObjectHideFlags: 0
  m_CorrespondingSourceObject: {fileID: 0}
  m_PrefabInstance: {fileID: 0}
  m_PrefabAsset: {fileID: 0}
  m_GameObject: {fileID: 1351470433941039145}
  m_Enabled: 1
  m_EditorHideFlags: 0
  m_Script: {fileID: 11500000, guid: b17ab3d589654e65ba80ae76fd8032fc, type: 3}
  m_Name: 
  m_EditorClassIdentifier: 
  skeletonAction:
    actionPath: /actions/default/in/SkeletonLeftHand
    needsReinit: 0
  handAnimator: {fileID: 0}
  thumbFinger:
    name: Thumb
    index: -1
  indexFinger:
    name: Index
    index: -1
  middleFinger:
    name: Middle
    index: -1
  ringFinger:
    name: Ring
    index: -1
  pinkyFinger:
    name: Pinky
    index: -1
  mirrorBone: 1
  rootBoneName: Root
  wristBoneName: Root/wrist_r
