%YAML 1.1
%TAG !u! tag:unity3d.com,2011:
--- !u!114 &11400000
MonoBehaviour:
  m_ObjectHideFlags: 0
  m_CorrespondingSourceObject: {fileID: 0}
  m_PrefabInstance: {fileID: 0}
  m_PrefabAsset: {fileID: 0}
  m_GameObject: {fileID: 0}
  m_Enabled: 1
  m_EditorHideFlags: 0
  m_Script: {fileID: 11500000, guid: 7fef23d542cb47b4bb5dac4652a40934, type: 3}
  m_Name: Reaction_Happy
  m_EditorClassIdentifier: 
  reactionPrefab: {fileID: 5550325289564885976, guid: a4b539faf58f1bb4cad278cc91bac64c,
    type: 3}
  reactionSprite: {fileID: 21300000, guid: af6b54c51dd1dc6409f82f53c5efca29, type: 3}
  Settings:
    Identifier:
      Guid: 1759da38-e11f-464f-b4f1-7182fd774c19
