%YAML 1.1
%TAG !u! tag:unity3d.com,2011:
--- !u!114 &11400000
MonoBehaviour:
  m_ObjectHideFlags: 0
  m_CorrespondingSourceObject: {fileID: 0}
  m_PrefabInstance: {fileID: 0}
  m_PrefabAsset: {fileID: 0}
  m_GameObject: {fileID: 0}
  m_Enabled: 1
  m_EditorHideFlags: 0
  m_Script: {fileID: 11500000, guid: 7fef23d542cb47b4bb5dac4652a40934, type: 3}
  m_Name: Reaction_Bored
  m_EditorClassIdentifier: 
  reactionPrefab: {fileID: 5550325289564885976, guid: 29dc710a7bba62b4b9fe6d78bb61a1ba,
    type: 3}
  reactionSprite: {fileID: 21300000, guid: de3d5de8dba20f2468a25dfbca334369, type: 3}
  Settings:
    Identifier:
      Guid: a7c47edb-bb4c-42fd-8672-94340bce200c
